[
    { 
      "id": 12345, 
      "date": "09.04.2014",
      "marking": "23PAW23P",
      "loading": "EUR PAL",
      "units": 12,
      "weight": "14.3t",
      "from": {
        "company": "Volkswagen GmbH",
        "address": "Gewerbepark 14 24783 Hamburg, Deutschland"
      },
      "to": {
        "company": "Brose Automobiletechnik",
        "address": "Sinkelstrasse 7 47183 Mosbach, Deutschland"
      }
    }
  ]
